Stno,"SI card","Database Id",Name,YB,Block,nc,Start,Finish,Time,Classifier,"Club no.",Cl.name,City,Nat,"Cl. no.",Short,Long,Num1,Num2,Num3,Text1,Text2,Text3,"Adr. name",Street,Line2,Zip,City,Phone,Fax,EMail,Id/Club,Rented,"Start fee",Paid,"Course no.",Course,km,m,"Course controls",Pl,"Start punch","Finish punch",Control1,Punch1,Control2,Punch2,Control3,Punch3,Control4,Punch4,Control5,Punch5,Control6,Punch6,Control7,Punch7,Control8,Punch8,Control9,Punch9,Control10,Punch10,"(may be more) ..."
,,,"Mikalajūnas Matas",,,,00:00:00,00:16:51,16:51,0,,N/A,,,4,4,4,,,,,,,,,,,,,,,,,,,4,4,1,,7,,,,54,2:16,54,4:14,54,6:57,54,8:36,54,10:56,54,14:49,54,16:44,54,16:51
,,,"Stankūnas Matas",,,,00:00:00,00:17:48,17:48,0,,N/A,,,4,4,4,,,,,,,,,,,,,,,,,,,4,4,1,,7,,,,54,2:06,54,8:28,54,11:08,54,12:27,54,13:59,54,15:56,54,17:41,54,17:48
,,,"Sobeckis Dainius",,,,00:00:00,00:18:35,18:35,0,,N/A,,,4,4,4,,,,,,,,,,,,,,,,,,,4,4,1,,7,,,,54,2:59,54,5:20,54,12:29,54,14:04,54,15:05,54,17:02,54,18:28,54,18:35
,,,"Paulius Mantas",,,,00:00:00,00:21:25,21:25,0,,N/A,,,4,4,4,,,,,,,,,,,,,,,,,,,4,4,1,,7,,,,54,2:03,54,4:44,54,7:46,54,9:57,54,13:05,54,18:23,54,21:17,54,21:25
,,,"Budreckas Emilis",,,,00:00:00,00:22:43,22:43,0,,N/A,,,4,4,4,,,,,,,,,,,,,,,,,,,4,4,1,,7,,,,54,2:15,54,5:08,54,8:13,54,12:38,54,14:39,54,18:23,54,22:36,54,22:43
,,,"Simanauskas Nerijus",,,,00:00:00,00:25:58,25:58,0,,N/A,,,4,4,4,,,,,,,,,,,,,,,,,,,4,4,1,,7,,,,54,1:33,54,3:26,54,6:33,54,8:26,54,13:00,54,24:19,54,25:50,54,25:58
,,,"Venclovaitė Rasa",,,,00:00:00,00:26:29,26:29,0,,N/A,,,4,4,4,,,,,,,,,,,,,,,,,,,4,4,1,,7,,,,54,7:28,54,9:56,54,15:53,54,17:36,54,19:49,54,24:09,54,26:17,54,26:29
,,,"Žukauskaitė Deimena",,,,00:00:00,00:27:59,27:59,0,,N/A,,,4,4,4,,,,,,,,,,,,,,,,,,,4,4,1,,7,,,,54,1:37,54,3:21,54,7:15,54,9:32,54,14:39,54,25:33,54,27:51,54,27:59
,,,"Beržanskytė Ugnė",,,,00:00:00,00:28:09,28:09,0,,N/A,,,4,4,4,,,,,,,,,,,,,,,,,,,4,4,1,,7,,,,54,1:48,54,4:03,54,7:20,54,9:39,54,14:23,54,26:02,54,27:56,54,28:09
,,,"Denisovas Eimantas",,,,00:00:00,00:28:57,28:57,0,,N/A,,,4,4,4,,,,,,,,,,,,,,,,,,,4,4,1,,7,,,,54,3:16,54,6:39,54,12:01,54,23:22,54,24:29,54,27:07,54,28:51,54,28:57
,,,"Mickus Benediktas",,,,00:00:00,00:29:25,29:25,0,,N/A,,,4,4,4,,,,,,,,,,,,,,,,,,,4,4,1,,7,,,,54,6:29,54,10:19,54,22:58,54,24:07,54,25:27,54,28:22,54,29:17,54,29:25
,,,"Sobeckis Agnius",,,,00:00:00,00:29:27,29:27,0,,N/A,,,4,4,4,,,,,,,,,,,,,,,,,,,4,4,1,,7,,,,54,3:02,54,7:08,54,10:47,54,12:34,54,19:32,54,27:38,54,29:21,54,29:27
,,,"Lukoševičius Simonas",,,,00:00:00,00:38:15,38:15,0,,N/A,,,4,4,4,,,,,,,,,,,,,,,,,,,4,4,1,,7,,,,54,12:13,54,15:18,54,19:03,54,21:09,54,23:53,54,35:58,54,38:09,54,38:15
,,,"Kontautienė Vytė",,,,00:00:00,00:38:38,38:38,0,,N/A,,,4,4,4,,,,,,,,,,,,,,,,,,,4,4,1,,7,,,,54,6:23,54,10:28,54,22:24,54,25:16,54,33:48,54,35:30,54,38:29,54,38:38
,,,"Rimšienė Gintarė",,,,00:00:00,DSQ,DSQ,0,,N/A,,,4,4,4,,,,,,,,,,,,,,,,,,,4,4,1,,7,,,,54, ,54, ,54, ,54, ,54, ,54, ,54, ,54, 
,,,"Jegorovas Pijus",,,,00:00:00,00:31:02,31:02,0,,N/A,,,3,3,3,,,,,,,,,,,,,,,,,,,3,3,2.5,,16,,,,55,2:04,55,3:53,55,6:55,55,8:28,55,11:07,55,12:17,55,13:21,55,14:49,55,16:14,55,20:45,55,21:19,55,22:28,55,23:16,55,24:36,55,29:22,55,30:57,55,31:02
,,,"Kisieliūtė Silvija",,,,00:00:00,00:32:54,32:54,0,,N/A,,,3,3,3,,,,,,,,,,,,,,,,,,,3,3,2.5,,16,,,,55,1:40,55,3:47,55,6:26,55,7:53,55,12:11,55,13:50,55,15:41,55,16:54,55,18:50,55,24:04,55,24:44,55,25:53,55,26:59,55,28:16,55,31:13,55,32:49,55,32:54
,,,"Arcišauskis Orestas",,,,00:00:00,00:34:56,34:56,0,,N/A,,,3,3,3,,,,,,,,,,,,,,,,,,,3,3,2.5,,16,,,,55,1:45,55,3:48,55,5:56,55,7:35,55,9:56,55,11:27,55,14:47,55,16:44,55,20:21,55,25:33,55,26:20,55,27:44,55,28:48,55,30:26,55,33:24,55,34:50,55,34:56
,,,"Baltūsienė Violeta",,,,00:00:00,00:41:40,41:40,0,,N/A,,,3,3,3,,,,,,,,,,,,,,,,,,,3,3,2.5,,16,,,,55,2:15,55,4:54,55,7:49,55,9:25,55,12:34,55,14:07,55,15:42,55,17:04,55,22:50,55,30:09,55,30:58,55,32:56,55,34:22,55,36:13,55,39:46,55,41:32,55,41:40
,,,"Labžentytė Violeta",,,,00:00:00,00:42:53,42:53,0,,N/A,,,3,3,3,,,,,,,,,,,,,,,,,,,3,3,2.5,,16,,,,55,4:28,55,6:55,55,9:51,55,11:23,55,14:32,55,17:07,55,18:11,55,19:42,55,21:50,55,28:39,55,29:22,55,30:45,55,31:52,55,34:49,55,41:27,55,42:47,55,42:53
,,,"Morkūnas Aistis",,,,00:00:00,00:43:25,43:25,0,,N/A,,,3,3,3,,,,,,,,,,,,,,,,,,,3,3,2.5,,16,,,,55,1:16,55,2:51,55,5:18,55,7:06,55,9:58,55,11:39,55,13:11,55,14:47,55,18:22,55,28:57,55,29:48,55,32:37,55,34:58,55,38:22,55,42:06,55,43:15,55,43:25
,,,"Barauskas Mykolas",,,,00:00:00,00:45:45,45:45,0,,N/A,,,3,3,3,,,,,,,,,,,,,,,,,,,3,3,2.5,,16,,,,55,2:36,55,4:55,55,8:09,55,10:08,55,13:52,55,16:12,55,18:24,55,20:09,55,23:32,55,32:40,55,33:42,55,35:43,55,37:08,55,39:00,55,43:31,55,45:31,55,45:45
,,,"Tenikaitis Karolis",,,,00:00:00,00:50:07,50:07,0,,N/A,,,3,3,3,,,,,,,,,,,,,,,,,,,3,3,2.5,,16,,,,55,2:18,55,3:53,55,9:43,55,12:48,55,15:18,55,16:52,55,19:55,55,21:49,55,25:52,55,37:25,55,38:40,55,39:53,55,42:54,55,44:33,55,49:15,55,50:03,55,50:07
,,,"Simonavičius Gintas",,,,00:00:00,00:50:52,50:52,0,,N/A,,,3,3,3,,,,,,,,,,,,,,,,,,,3,3,2.5,,16,,,,55,1:54,55,3:44,55,7:27,55,8:48,55,13:04,55,15:18,55,16:55,55,25:23,55,29:00,55,37:51,55,38:31,55,41:00,55,42:35,55,44:44,55,48:21,55,50:45,55,50:52
,,,"Petraitienė Birutė",,,,00:00:00,00:51:00,51:00,0,,N/A,,,3,3,3,,,,,,,,,,,,,,,,,,,3,3,2.5,,16,,,,55,3:36,55,5:47,55,8:43,55,11:02,55,14:06,55,20:19,55,22:45,55,24:25,55,27:33,55,37:32,55,38:20,55,39:47,55,41:23,55,44:02,55,48:35,55,50:48,55,51:00
,,,"Tubutytė Goda",,,,00:00:00,00:51:21,51:21,0,,N/A,,,3,3,3,,,,,,,,,,,,,,,,,,,3,3,2.5,,16,,,,55,6:57,55,9:51,55,13:20,55,15:21,55,19:36,55,22:16,55,24:31,55,26:30,55,29:28,55,38:03,55,38:45,55,40:16,55,41:49,55,43:25,55,47:02,55,51:14,55,51:21
,,,"Šimčikas Dainius",,,,00:00:00,00:52:02,52:02,0,,N/A,,,3,3,3,,,,,,,,,,,,,,,,,,,3,3,2.5,,16,,,,55,11:20,55,12:47,55,15:04,55,18:59,55,28:31,55,31:01,55,33:39,55,34:55,55,37:11,55,43:17,55,43:57,55,45:14,55,46:20,55,47:41,55,50:42,55,51:56,55,52:02
,,,"Sobeckis Joris",,,,00:00:00,00:54:22,54:22,0,,N/A,,,3,3,3,,,,,,,,,,,,,,,,,,,3,3,2.5,,16,,,,55,3:19,55,7:14,55,11:07,55,12:43,55,16:24,55,18:24,55,21:14,55,28:59,55,31:25,55,40:47,55,41:26,55,44:33,55,46:07,55,48:14,55,51:53,55,54:16,55,54:22
,,,"Dikčiūtė Emilija",,,,00:00:00,00:57:09,57:09,0,,N/A,,,3,3,3,,,,,,,,,,,,,,,,,,,3,3,2.5,,16,,,,55,3:20,55,5:36,55,16:54,55,19:11,55,21:37,55,23:31,55,26:51,55,28:21,55,32:22,55,43:56,55,44:40,55,46:27,55,49:24,55,51:07,55,55:54,55,57:02,55,57:09
,,,"Alvikis Rojus",,,,00:00:00,01:01:18,1:01:18,0,,N/A,,,3,3,3,,,,,,,,,,,,,,,,,,,3,3,2.5,,16,,,,55,4:33,55,6:20,55,9:22,55,13:06,55,15:26,55,27:39,55,30:45,55,32:26,55,36:37,55,48:26,55,49:24,55,51:02,55,53:42,55,55:33,55,1:00:05,55,1:01:11,55,1:01:18
,,,"Kruša Kristupas",,,,00:00:00,01:03:19,1:03:19,0,,N/A,,,3,3,3,,,,,,,,,,,,,,,,,,,3,3,2.5,,16,,,,55,2:30,55,4:26,55,7:40,55,15:19,55,17:34,55,29:43,55,32:50,55,34:40,55,38:47,55,50:16,55,51:41,55,53:35,55,55:47,55,57:37,55,1:02:08,55,1:03:11,55,1:03:19
,,,"Paulienė Jolanta",,,,00:00:00,01:09:42,1:09:42,0,,N/A,,,3,3,3,,,,,,,,,,,,,,,,,,,3,3,2.5,,16,,,,55,2:07,55,4:45,55,7:40,55,10:14,55,37:59,55,40:25,55,42:01,55,51:15,55,53:59,55,58:52,55,59:42,55,1:01:15,55,1:02:08,55,1:03:46,55,1:07:55,55,1:09:34,55,1:09:42
,,,"Gedgaudaitė Natalija",,,,00:00:00,00:36:30,36:30,0,,N/A,,,2,2,2,,,,,,,,,,,,,,,,,,,2,2,3.6,,20,,,,33,1:14,33,3:08,33,5:29,33,6:55,33,8:02,33,9:55,33,14:41,33,17:23,33,19:30,33,21:53,33,23:31,33,24:23,33,25:06,33,26:24,33,30:46,33,31:22,33,32:30,33,33:24,33,34:37,33,36:24,33,36:30
,,,"Eringis Evaldas",,,,00:00:00,00:36:45,36:45,0,,N/A,,,2,2,2,,,,,,,,,,,,,,,,,,,2,2,3.6,,20,,,,33,1:27,33,3:09,33,5:08,33,5:59,33,7:03,33,9:05,33,13:47,33,17:21,33,19:29,33,22:11,33,23:27,33,24:20,33,25:13,33,26:38,33,31:14,33,31:51,33,32:55,33,34:02,33,35:10,33,36:38,33,36:45
,,,"Piktūrna Vidmantas",,,,00:00:00,00:38:18,38:18,0,,N/A,,,2,2,2,,,,,,,,,,,,,,,,,,,2,2,3.6,,20,,,,33,1:28,33,4:02,33,5:56,33,7:03,33,8:06,33,10:04,33,14:46,33,17:23,33,19:35,33,22:46,33,24:23,33,25:36,33,26:36,33,28:11,33,32:15,33,32:59,33,34:11,33,35:07,33,36:18,33,38:10,33,38:18
,,,"Kasiulevičius Rimvydas",,,,00:00:00,00:39:07,39:07,0,,N/A,,,2,2,2,,,,,,,,,,,,,,,,,,,2,2,3.6,,20,,,,33,1:24,33,3:20,33,5:15,33,6:09,33,7:01,33,8:54,33,14:00,33,16:47,33,19:23,33,22:55,33,24:39,33,25:38,33,27:25,33,29:34,33,33:34,33,34:23,33,35:23,33,36:20,33,37:22,33,39:00,33,39:07
,,,"Valauskas Gintautas",,,,00:00:00,00:39:40,39:40,0,,N/A,,,2,2,2,,,,,,,,,,,,,,,,,,,2,2,3.6,,20,,,,33,1:21,33,3:16,33,5:26,33,7:33,33,8:39,33,10:49,33,15:27,33,17:55,33,20:13,33,23:15,33,25:04,33,26:04,33,27:07,33,28:24,33,33:24,33,34:05,33,35:32,33,36:27,33,37:45,33,39:33,33,39:40
,,,"Skripkauskaitė Skaistė",,,,00:00:00,00:42:17,42:17,0,,N/A,,,2,2,2,,,,,,,,,,,,,,,,,,,2,2,3.6,,20,,,,33,1:20,33,3:28,33,5:22,33,6:31,33,7:48,33,10:23,33,16:40,33,19:01,33,21:15,33,23:54,33,25:09,33,26:03,33,27:06,33,29:21,33,34:22,33,35:01,33,35:58,33,38:46,33,40:14,33,42:12,33,42:17
,,,"Sirutis Tomas",,,,00:00:00,00:44:13,44:13,0,,N/A,,,2,2,2,,,,,,,,,,,,,,,,,,,2,2,3.6,,20,,,,33,1:36,33,4:39,33,6:55,33,7:47,33,9:13,33,11:36,33,16:47,33,20:11,33,23:15,33,25:59,33,27:15,33,28:36,33,29:46,33,32:44,33,38:20,33,38:51,33,39:57,33,41:03,33,42:38,33,44:05,33,44:13
,,,"Liubinskienė Justina",,,,00:00:00,00:45:17,45:17,0,,N/A,,,2,2,2,,,,,,,,,,,,,,,,,,,2,2,3.6,,20,,,,33,1:36,33,3:51,33,5:55,33,6:54,33,8:15,33,10:24,33,15:43,33,21:39,33,24:26,33,28:03,33,29:48,33,30:44,33,31:39,33,33:19,33,38:51,33,39:33,33,40:45,33,41:49,33,42:51,33,45:10,33,45:17
,,,"Jakulytė Dalia",,,,00:00:00,00:47:31,47:31,0,,N/A,,,2,2,2,,,,,,,,,,,,,,,,,,,2,2,3.6,,20,,,,33,1:46,33,4:21,33,8:18,33,9:21,33,10:22,33,12:30,33,17:34,33,23:16,33,26:08,33,28:56,33,30:30,33,31:56,33,32:57,33,35:17,33,41:07,33,41:52,33,43:08,33,44:06,33,45:25,33,47:24,33,47:31
,,,"Maumevičienė Arūnė",,,,00:00:00,00:49:43,49:43,0,,N/A,,,2,2,2,,,,,,,,,,,,,,,,,,,2,2,3.6,,20,,,,33,1:59,33,4:17,33,6:40,33,7:51,33,9:22,33,11:47,33,19:00,33,22:49,33,25:44,33,29:08,33,31:04,33,32:26,33,33:34,33,35:30,33,41:22,33,42:18,33,43:56,33,45:39,33,47:05,33,49:34,33,49:43
,,,"Grublys Arvydas",,,,00:00:00,00:51:12,51:12,0,,N/A,,,2,2,2,,,,,,,,,,,,,,,,,,,2,2,3.6,,20,,,,33,0:54,33,4:58,33,8:07,33,8:52,33,9:48,33,12:00,33,16:21,33,18:20,33,25:19,33,34:57,33,36:21,33,37:08,33,37:58,33,39:11,33,42:59,33,43:34,33,44:42,33,45:31,33,47:41,33,51:06,33,51:12
,,,"Grublys Algirdas",,,,00:00:00,00:51:31,51:31,0,,N/A,,,2,2,2,,,,,,,,,,,,,,,,,,,2,2,3.6,,20,,,,33,1:32,33,3:49,33,6:16,33,7:23,33,8:48,33,10:54,33,18:54,33,26:35,33,30:11,33,33:03,33,34:57,33,36:02,33,37:09,33,40:24,33,45:22,33,45:59,33,47:14,33,48:13,33,49:26,33,51:24,33,51:31
,,,"Grublienė Živilė",,,,00:00:00,00:51:56,51:56,0,,N/A,,,2,2,2,,,,,,,,,,,,,,,,,,,2,2,3.6,,20,,,,33,1:44,33,4:32,33,7:32,33,8:54,33,10:40,33,13:27,33,22:10,33,25:54,33,29:40,33,33:00,33,35:09,33,36:20,33,37:24,33,39:05,33,44:03,33,44:52,33,46:11,33,47:22,33,48:48,33,51:48,33,51:56
,,,"Denisovas Domantas",,,,00:00:00,00:54:03,54:03,0,,N/A,,,2,2,2,,,,,,,,,,,,,,,,,,,2,2,3.6,,20,,,,33,1:28,33,4:19,33,7:36,33,8:57,33,9:52,33,12:30,33,22:45,33,26:59,33,31:52,33,34:06,33,35:11,33,36:14,33,37:07,33,40:46,33,45:30,33,46:10,33,47:19,33,48:20,33,50:23,33,53:58,33,54:03
,,,"Kalvaitis Oskaras",,,,00:00:00,01:03:33,1:03:33,0,,N/A,,,2,2,2,,,,,,,,,,,,,,,,,,,2,2,3.6,,20,,,,33,1:19,33,8:13,33,9:57,33,11:18,33,13:02,33,16:01,33,25:56,33,29:40,33,32:52,33,37:16,33,38:56,33,40:08,33,41:50,33,45:14,33,52:45,33,53:36,33,55:30,33,57:41,33,59:15,33,1:03:28,33,1:03:33
,,,"Skripkauskienė Dovilė",,,,00:00:00,01:13:10,1:13:10,0,,N/A,,,2,2,2,,,,,,,,,,,,,,,,,,,2,2,3.6,,20,,,,33,1:57,33,4:45,33,11:24,33,14:34,33,16:52,33,20:13,33,28:56,33,38:11,33,49:21,33,53:15,33,55:43,33,56:54,33,58:30,33,1:00:44,33,1:06:07,33,1:06:49,33,1:08:01,33,1:09:05,33,1:10:24,33,1:13:02,33,1:13:10
,,,"Pociejus Nerijus",,,,00:00:00,01:19:09,1:19:09,0,,N/A,,,2,2,2,,,,,,,,,,,,,,,,,,,2,2,3.6,,20,,,,33,2:18,33,4:17,33,6:25,33,7:20,33,9:25,33,11:41,33,22:32,33,29:47,33,54:38,33,57:41,33,1:00:24,33,1:01:56,33,1:03:26,33,1:06:02,33,1:11:04,33,1:11:36,33,1:12:32,33,1:13:27,33,1:15:02,33,1:19:01,33,1:19:09
,,,"Janušauskas Daivoras",,,,00:00:00,01:24:41,1:24:41,0,,N/A,,,2,2,2,,,,,,,,,,,,,,,,,,,2,2,3.6,,20,,,,33,2:07,33,10:12,33,12:08,33,13:18,33,14:21,33,16:28,33,32:04,33,43:11,33,51:46,33,55:08,33,57:10,33,58:49,33,59:56,33,1:07:34,33,1:15:27,33,1:16:05,33,1:17:30,33,1:18:42,33,1:20:05,33,1:24:34,33,1:24:41
,,,"Palekas Dovydas",,,,00:00:00,01:37:49,1:37:49,0,,N/A,,,2,2,2,,,,,,,,,,,,,,,,,,,2,2,3.6,,20,,,,33,8:30,33,10:28,33,13:31,33,16:02,33,21:27,33,28:45,33,41:34,33,48:08,33,1:15:33,33,1:19:28,33,1:22:10,33,1:22:47,33,1:23:59,33,1:25:30,33,1:30:25,33,1:30:57,33,1:31:55,33,1:32:39,33,1:33:37,33,1:37:43,33,1:37:49
,,,"Drublionis Tomas",,,,00:00:00,01:56:59,1:56:59,0,,N/A,,,2,2,2,,,,,,,,,,,,,,,,,,,2,2,3.6,,20,,,,33,2:54,33,5:25,33,15:14,33,16:22,33,20:13,33,28:35,33,40:15,33,59:33,33,1:13:39,33,1:16:21,33,1:20:39,33,1:30:11,33,1:32:11,33,1:35:25,33,1:44:18,33,1:44:53,33,1:46:08,33,1:53:31,33,1:54:58,33,1:56:50,33,1:56:59
,,,"Šulskis Audronis",,,,00:00:00,DSQ,DSQ,0,,N/A,,,2,2,2,,,,,,,,,,,,,,,,,,,2,2,3.6,,20,,,,33,1:22,33,3:26,33,10:30,33,12:10,33,13:10,33,19:08,33,23:34,33,33:55,33, ,33,39:06,33,40:21,33,41:11,33,42:09,33,43:46,33,47:40,33,48:09,33,49:11,33,50:06,33,51:10,33,53:16,33,53:23
,,,"Jarmoška Leonas",,,,00:00:00,DSQ,DSQ,0,,N/A,,,2,2,2,,,,,,,,,,,,,,,,,,,2,2,3.6,,20,,,,33,1:29,33,19:15,33,27:55,33,29:58,33,31:25,33,34:01,33,58:33,33,1:01:46,33, ,33, ,33, ,33, ,33, ,33, ,33, ,33, ,33, ,33, ,33, ,33, ,33, 
,,,"Eigelė Lina",,,,00:00:00,DSQ,DSQ,0,,N/A,,,2,2,2,,,,,,,,,,,,,,,,,,,2,2,3.6,,20,,,,33,2:16,33,6:10,33,17:24,33,18:57,33,20:44,33, ,33, ,33, ,33, ,33, ,33, ,33, ,33, ,33, ,33, ,33, ,33, ,33, ,33, ,33, ,33, 
,,,"Gandžarauskaitė Inga",,,,00:00:00,DSQ,DSQ,0,,N/A,,,2,2,2,,,,,,,,,,,,,,,,,,,2,2,3.6,,20,,,,33,2:18,33,5:23,33,10:23,33,14:13,33,16:21,33,19:51,33,27:10,33,48:26,33,53:02,33,58:14,33,1:00:20,33,1:01:25,33,1:05:37,33,1:08:18,33, ,33, ,33, ,33, ,33, ,33, ,33,1:20:48
,,,"Nikitinė Viktorija",,,,00:00:00,DSQ,DSQ,0,,N/A,,,2,2,2,,,,,,,,,,,,,,,,,,,2,2,3.6,,20,,,,33,2:18,33,5:44,33,10:38,33,14:15,33,16:22,33,19:56,33,27:10,33,48:26,33,53:08,33,58:13,33,1:00:06,33,1:01:11,33,1:05:06,33,1:08:31,33, ,33, ,33, ,33, ,33, ,33, ,33,1:20:41
,,,"Čiapas Agnius",,,,00:00:00,00:33:04,33:04,0,,N/A,,,1,1,1,,,,,,,,,,,,,,,,,,,1,1,4.7,,24,,,,34,1:13,34,2:26,34,3:37,34,4:14,34,4:51,34,7:01,34,7:45,34,10:39,34,12:29,34,14:01,34,16:02,34,17:11,34,18:43,34,19:40,34,20:30,34,23:29,34,26:07,34,27:04,34,28:06,34,28:56,34,29:58,34,30:42,34,32:14,34,32:59,34,33:04
,,,"Galičinas Aidas",,,,00:00:00,00:35:01,35:01,0,,N/A,,,1,1,1,,,,,,,,,,,,,,,,,,,1,1,4.7,,24,,,,34,1:10,34,2:34,34,3:40,34,4:17,34,4:57,34,6:56,34,7:44,34,8:51,34,10:42,34,12:07,34,13:33,34,18:01,34,19:42,34,20:23,34,21:10,34,24:26,34,27:22,34,28:27,34,29:48,34,30:38,34,32:02,34,32:51,34,34:19,34,34:58,34,35:01
,,,"Mikšys Julius",,,,00:00:00,00:36:25,36:25,0,,N/A,,,1,1,1,,,,,,,,,,,,,,,,,,,1,1,4.7,,24,,,,34,1:23,34,3:04,34,4:24,34,5:04,34,5:45,34,8:45,34,9:35,34,10:58,34,13:00,34,15:03,34,16:37,34,18:13,34,19:59,34,20:52,34,21:45,34,25:36,34,28:06,34,29:25,34,30:44,34,31:45,34,33:00,34,33:51,34,35:32,34,36:20,34,36:25
,,,"Totilas Mantas",,,,00:00:00,00:37:28,37:28,0,,N/A,,,1,1,1,,,,,,,,,,,,,,,,,,,1,1,4.7,,24,,,,34,1:29,34,3:08,34,6:08,34,6:46,34,7:26,34,10:02,34,10:54,34,12:46,34,14:32,34,15:58,34,17:57,34,19:19,34,21:06,34,21:58,34,22:52,34,26:00,34,28:59,34,30:49,34,32:15,34,33:08,34,34:13,34,35:00,34,36:33,34,37:23,34,37:28
,,,"Pocius Audrius",,,,00:00:00,00:37:51,37:51,0,,N/A,,,1,1,1,,,,,,,,,,,,,,,,,,,1,1,4.7,,24,,,,34,1:38,34,3:23,34,5:09,34,5:56,34,6:42,34,9:10,34,10:09,34,11:35,34,13:46,34,15:29,34,17:19,34,18:53,34,20:53,34,22:01,34,22:59,34,26:12,34,29:30,34,30:44,34,32:03,34,33:04,34,34:09,34,35:05,34,36:58,34,37:46,34,37:51
,,,"Pabrėža Ramūnas",,,,00:00:00,00:40:10,40:10,0,,N/A,,,1,1,1,,,,,,,,,,,,,,,,,,,1,1,4.7,,24,,,,34,1:53,34,3:51,34,5:19,34,6:02,34,6:53,34,9:47,34,10:46,34,12:11,34,14:34,34,16:36,34,18:22,34,19:49,34,22:50,34,23:57,34,24:58,34,28:29,34,31:40,34,32:58,34,34:22,34,35:19,34,36:26,34,37:23,34,39:15,34,40:04,34,40:10
,,,"Žalimienė Reda",,,,00:00:00,00:43:42,43:42,0,,N/A,,,1,1,1,,,,,,,,,,,,,,,,,,,1,1,4.7,,24,,,,34,1:43,34,3:42,34,5:06,34,5:53,34,6:39,34,9:12,34,10:07,34,11:35,34,17:24,34,19:03,34,21:35,34,23:18,34,25:40,34,26:55,34,28:03,34,31:25,34,34:08,34,36:00,34,37:20,34,38:22,34,39:47,34,40:40,34,42:30,34,43:35,34,43:42
,,,"Vaičius Kęstutis",,,,00:00:00,00:44:03,44:03,0,,N/A,,,1,1,1,,,,,,,,,,,,,,,,,,,1,1,4.7,,24,,,,34,1:39,34,4:24,34,5:58,34,6:42,34,7:36,34,10:25,34,11:22,34,15:02,34,17:58,34,20:02,34,21:56,34,23:38,34,25:39,34,26:50,34,27:49,34,31:13,34,33:59,34,35:54,34,37:21,34,38:29,34,39:55,34,40:49,34,42:53,34,43:58,34,44:03
,,,"Vaišvilas Marius",,,,00:00:00,00:45:15,45:15,0,,N/A,,,1,1,1,,,,,,,,,,,,,,,,,,,1,1,4.7,,24,,,,34,1:42,34,3:36,34,5:26,34,6:13,34,7:06,34,10:00,34,11:08,34,13:06,34,15:32,34,19:08,34,20:36,34,21:53,34,23:49,34,27:41,34,28:53,34,32:17,34,36:02,34,37:15,34,38:38,34,39:32,34,40:35,34,41:40,34,43:54,34,45:07,34,45:15
,,,"Riauka Simonas",,,,00:00:00,00:46:00,46:00,0,,N/A,,,1,1,1,,,,,,,,,,,,,,,,,,,1,1,4.7,,24,,,,34,1:27,34,2:46,34,3:58,34,4:35,34,5:15,34,7:54,34,8:41,34,10:03,34,18:29,34,24:09,34,25:39,34,27:18,34,29:24,34,30:25,34,31:24,34,34:53,34,37:40,34,39:44,34,40:54,34,41:43,34,42:39,34,43:25,34,45:12,34,45:56,34,46:00
,,,"Mikšys Eugenijus",,,,00:00:00,00:46:09,46:09,0,,N/A,,,1,1,1,,,,,,,,,,,,,,,,,,,1,1,4.7,,24,,,,34,1:57,34,3:46,34,5:25,34,6:17,34,7:33,34,10:06,34,11:10,34,12:54,34,16:31,34,18:14,34,20:11,34,21:41,34,23:51,34,24:57,34,25:54,34,29:37,34,32:32,34,34:15,34,36:13,34,37:22,34,39:12,34,40:12,34,45:01,34,46:02,34,46:09
,,,"Baltūsis Simonas",,,,00:00:00,00:46:42,46:42,0,,N/A,,,1,1,1,,,,,,,,,,,,,,,,,,,1,1,4.7,,24,,,,34,1:48,34,5:45,34,7:18,34,8:10,34,9:04,34,11:32,34,12:31,34,14:11,34,16:56,34,19:06,34,21:26,34,23:48,34,25:58,34,27:26,34,28:36,34,33:21,34,37:43,34,39:14,34,40:54,34,41:55,34,43:03,34,43:57,34,45:42,34,46:34,34,46:42
,,,"Kaveckas Vitalijus",,,,00:00:00,00:50:27,50:27,0,,N/A,,,1,1,1,,,,,,,,,,,,,,,,,,,1,1,4.7,,24,,,,34,1:39,34,5:27,34,9:28,34,10:33,34,11:16,34,14:08,34,15:01,34,16:24,34,21:09,34,22:44,34,24:12,34,26:57,34,28:45,34,30:17,34,31:20,34,34:49,34,38:53,34,42:34,34,44:23,34,45:19,34,46:28,34,47:28,34,49:26,34,50:21,34,50:27
,,,"Kalvaitis Romandas",,,,00:00:00,00:51:16,51:16,0,,N/A,,,1,1,1,,,,,,,,,,,,,,,,,,,1,1,4.7,,24,,,,34,5:39,34,7:22,34,9:02,34,9:47,34,10:56,34,14:40,34,15:55,34,17:42,34,21:50,34,23:29,34,25:29,34,27:08,34,29:12,34,30:17,34,31:22,34,35:46,34,41:31,34,43:14,34,44:58,34,45:58,34,47:06,34,48:13,34,50:08,34,51:10,34,51:16
,,,"Pečkys Artūras",,,,00:00:00,00:52:19,52:19,0,,N/A,,,1,1,1,,,,,,,,,,,,,,,,,,,1,1,4.7,,24,,,,34,1:41,34,3:17,34,5:12,34,6:52,34,7:46,34,16:58,34,17:55,34,19:41,34,23:48,34,26:35,34,29:52,34,31:45,34,34:00,34,35:06,34,36:27,34,40:09,34,43:29,34,45:01,34,46:26,34,47:25,34,48:37,34,49:34,34,51:25,34,52:12,34,52:19
,,,"Baltriukaitė Ieva",,,,00:00:00,00:54:13,54:13,0,,N/A,,,1,1,1,,,,,,,,,,,,,,,,,,,1,1,4.7,,24,,,,34,1:54,34,4:30,34,6:55,34,7:45,34,8:40,34,12:14,34,13:12,34,14:55,34,18:49,34,20:40,34,22:20,34,30:51,34,33:05,34,34:57,34,36:07,34,40:34,34,44:06,34,45:38,34,47:17,34,48:25,34,49:42,34,50:50,34,53:05,34,54:06,34,54:13
,,,"Viršilaitė Kristina",,,,00:00:00,00:54:20,54:20,0,,N/A,,,1,1,1,,,,,,,,,,,,,,,,,,,1,1,4.7,,24,,,,34,2:12,34,4:15,34,6:20,34,7:17,34,8:30,34,12:16,34,13:46,34,15:52,34,19:04,34,25:29,34,27:40,34,29:16,34,31:38,34,32:56,34,34:17,34,39:31,34,43:59,34,45:44,34,47:25,34,48:39,34,49:51,34,50:55,34,53:08,34,54:12,34,54:20
,,,"Vilniūtė Saulė",,,,00:00:00,00:59:17,59:17,0,,N/A,,,1,1,1,,,,,,,,,,,,,,,,,,,1,1,4.7,,24,,,,34,2:40,34,4:55,34,7:32,34,8:41,34,9:40,34,14:41,34,15:56,34,17:59,34,24:03,34,26:03,34,29:26,34,31:18,34,35:24,34,36:45,34,38:31,34,43:54,34,47:47,34,49:30,34,51:21,34,52:37,34,53:59,34,55:25,34,58:11,34,59:12,34,59:17
,,,"Tėvelytė Eidvilė",,,,00:00:00,01:00:14,1:00:14,0,,N/A,,,1,1,1,,,,,,,,,,,,,,,,,,,1,1,4.7,,24,,,,34,2:19,34,4:22,34,6:27,34,7:22,34,8:28,34,11:55,34,13:14,34,15:24,34,19:30,34,21:37,34,23:50,34,25:53,34,29:21,34,30:48,34,32:28,34,40:07,34,45:45,34,47:32,34,49:30,34,50:58,34,54:32,34,55:29,34,58:25,34,1:00:09,34,1:00:14
,,,"Baltrušaitytė Rusnė",,,,00:00:00,01:04:07,1:04:07,0,,N/A,,,1,1,1,,,,,,,,,,,,,,,,,,,1,1,4.7,,24,,,,34,2:06,34,4:08,34,6:08,34,7:36,34,8:23,34,11:52,34,12:58,34,15:08,34,21:39,34,23:26,34,31:54,34,34:07,34,36:24,34,37:47,34,40:09,34,44:24,34,49:33,34,51:55,34,53:57,34,57:27,34,59:35,34,1:01:01,34,1:03:04,34,1:03:59,34,1:04:07
,,,"Denisovaitė Rugilė",,,,00:00:00,01:04:21,1:04:21,0,,N/A,,,1,1,1,,,,,,,,,,,,,,,,,,,1,1,4.7,,24,,,,34,2:28,34,5:46,34,8:51,34,10:17,34,11:50,34,15:41,34,17:35,34,20:37,34,26:40,34,29:54,34,33:41,34,36:12,34,39:12,34,41:35,34,43:53,34,48:43,34,52:43,34,54:36,34,56:22,34,57:36,34,58:59,34,1:00:44,34,1:03:02,34,1:04:16,34,1:04:21
,,,"Domarkaitė Giedrė",,,,00:00:00,01:05:50,1:05:50,0,,N/A,,,1,1,1,,,,,,,,,,,,,,,,,,,1,1,4.7,,24,,,,34,2:52,34,11:25,34,13:40,34,15:13,34,16:12,34,21:16,34,22:28,34,24:31,34,30:34,34,32:35,34,35:56,34,37:49,34,41:55,34,43:16,34,44:57,34,50:26,34,54:18,34,56:06,34,57:54,34,59:08,34,1:00:34,34,1:01:56,34,1:04:38,34,1:05:42,34,1:05:50
,,,"Rimša Justas",,,,00:00:00,01:08:26,1:08:26,0,,N/A,,,1,1,1,,,,,,,,,,,,,,,,,,,1,1,4.7,,24,,,,34,1:21,34,3:46,34,5:16,34,11:15,34,12:36,34,15:31,34,16:35,34,18:46,34,25:35,34,36:08,34,39:34,34,41:31,34,43:46,34,45:02,34,46:16,34,53:17,34,56:54,34,58:43,34,1:00:47,34,1:01:50,34,1:03:44,34,1:05:18,34,1:07:17,34,1:08:13,34,1:08:26
,,,"Lubys Robertas",,,,00:00:00,01:09:46,1:09:46,0,,N/A,,,1,1,1,,,,,,,,,,,,,,,,,,,1,1,4.7,,24,,,,34,1:57,34,7:06,34,11:23,34,14:22,34,14:59,34,18:28,34,19:45,34,22:27,34,32:22,34,34:15,34,39:18,34,44:21,34,46:52,34,48:38,34,49:54,34,53:59,34,58:02,34,59:59,34,1:02:11,34,1:04:17,34,1:05:39,34,1:06:36,34,1:08:39,34,1:09:40,34,1:09:46
,,,"Baltrušaitienė Rasa",,,,00:00:00,01:19:21,1:19:21,0,,N/A,,,1,1,1,,,,,,,,,,,,,,,,,,,1,1,4.7,,24,,,,34,2:16,34,8:27,34,10:45,34,11:55,34,13:21,34,19:48,34,21:24,34,23:51,34,39:05,34,43:22,34,47:06,34,49:17,34,53:06,34,54:36,34,56:33,34,1:01:21,34,1:05:11,34,1:07:32,34,1:09:59,34,1:11:22,34,1:12:59,34,1:14:52,34,1:17:44,34,1:19:16,34,1:19:21
,,,"Tijūnaitis Karolis",,,,00:00:00,01:21:34,1:21:34,0,,N/A,,,1,1,1,,,,,,,,,,,,,,,,,,,1,1,4.7,,24,,,,34,3:22,34,7:09,34,9:31,34,10:20,34,11:50,34,17:06,34,17:56,34,19:35,34,23:29,34,26:31,34,31:20,34,49:20,34,52:43,34,55:00,34,57:06,34,1:02:54,34,1:06:28,34,1:09:40,34,1:11:13,34,1:12:21,34,1:13:48,34,1:16:15,34,1:20:13,34,1:21:28,34,1:21:34
,,,"Venckevičius Gintas",,,,00:00:00,01:23:02,1:23:02,0,,N/A,,,1,1,1,,,,,,,,,,,,,,,,,,,1,1,4.7,,24,,,,34,2:57,34,5:28,34,16:07,34,17:00,34,18:01,34,22:00,34,23:22,34,25:30,34,28:37,34,34:40,34,41:10,34,49:17,34,51:53,34,53:06,34,54:35,34,59:24,34,1:03:46,34,1:11:15,34,1:14:20,34,1:15:33,34,1:17:20,34,1:18:41,34,1:21:29,34,1:22:56,34,1:23:02
,,,"Kalvaitienė Deimantė",,,,00:00:00,01:23:33,1:23:33,0,,N/A,,,1,1,1,,,,,,,,,,,,,,,,,,,1,1,4.7,,24,,,,34,8:02,34,11:00,34,17:52,34,18:55,34,19:58,34,24:49,34,26:22,34,28:31,34,35:48,34,40:12,34,44:09,34,49:09,34,52:30,34,54:26,34,56:02,34,1:03:24,34,1:07:56,34,1:10:15,34,1:12:21,34,1:14:00,34,1:16:17,34,1:17:50,34,1:22:19,34,1:23:25,34,1:23:33
,,,"Žvirzdinaitė Vika",,,,00:00:00,01:33:24,1:33:24,0,,N/A,,,1,1,1,,,,,,,,,,,,,,,,,,,1,1,4.7,,24,,,,34,2:10,34,24:25,34,27:54,34,29:10,34,30:12,34,39:18,34,40:31,34,42:40,34,52:18,34,55:15,34,58:24,34,1:00:49,34,1:04:36,34,1:06:03,34,1:07:29,34,1:15:03,34,1:20:36,34,1:23:18,34,1:25:45,34,1:26:56,34,1:28:22,34,1:29:24,34,1:31:56,34,1:33:18,34,1:33:24
,,,"Lukošius Edvardas",,,,00:00:00,01:52:07,1:52:07,0,,N/A,,,1,1,1,,,,,,,,,,,,,,,,,,,1,1,4.7,,24,,,,34,1:38,34,5:27,34,11:31,34,13:00,34,13:56,34,24:48,34,25:40,34,32:25,34,55:15,34,1:06:14,34,1:13:33,34,1:16:06,34,1:20:50,34,1:23:09,34,1:24:32,34,1:32:53,34,1:37:25,34,1:40:06,34,1:41:52,34,1:43:07,34,1:46:38,34,1:47:43,34,1:51:08,34,1:51:59,34,1:52:07
